…
## 4) Exports by destination country

### 4.1) Create `coal_country`


``` r
coal_country <- coal |>
  group_by(coal_destination_country, year, quarter) |>
  summarise(total_exports = sum(total, na.rm = TRUE), .groups = "drop")

print(coal_country)
```

```
## # A tibble: 5,750 × 4
##    coal_destination_country  year quarter total_exports
##    <chr>                    <dbl>   <dbl>         <dbl>
##  1 Albania                   2016       4            74
##  2 Albania                   2023       2         24152
##  3 Algeria                   2002       1        129305
##  4 Algeria                   2002       3         62931
##  5 Algeria                   2002       4        129563
##  6 Algeria                   2003       1        128525
##  7 Algeria                   2003       2         70539
##  8 Algeria                   2003       3        141813
##  9 Algeria                   2003       4         66499
## 10 Algeria                   2004       1        141438
## # ℹ 5,740 more rows
```
…
``` r
coal_country <- coal_country |>
  complete(
    coal_destination_country,
    year    = full_seq(year, 1),
    quarter = 1:4,
    fill    = list(total_exports = 0)
  ) |>
  arrange(coal_destination_country, year, quarter)

print(coal_country)
```

```
## # A tibble: 14,592 × 4
##    coal_destination_country  year quarter total_exports
##    <chr>                    <dbl>   <dbl>         <dbl>
##  1 Albania                   2002       1             0
##  2 Albania                   2002       2             0
##  3 Albania                   2002       3             0
##  4 Albania                   2002       4             0
##  5 Albania                   2003       1             0
##  6 Albania                   2003       2             0
##  7 Albania                   2003       3             0
##  8 Albania                   2003       4             0
##  9 Albania                   2004       1             0
## 10 Albania                   2004       2             0
## # ℹ 14,582 more rows
```
…
